{
    "type": "forge:ore_shaped",
    "result": {
        "item": "invlink:netinserter"
    },
    "pattern": [
    "ccc",
    "hpi",
    "ccc"
    ],
    "key": {
        "c": {
           "item": "minecraft:cobblestone"
        },
        "p": {
           "item": "minecraft:piston"
        },
        "h": {
	       "item": "minecraft:hopper"
        },
        "i": {
	       "item": "invlink:pipe",
           "data": 0
        }
    }
}